// Jest Snapshot v1, https://goo.gl/fbAQLP

exports[`CategoriesScreen CategoriesScreen should render properly 1`] = `
<View
  style={
    Object {
      "flex": 1,
    }
  }
>
  <RCTSafeAreaView
    emulateUnlessSupported={true}
    style={
      Array [
        Object {
          "backgroundColor": "#1D243E",
          "elevation": 4,
          "zIndex": 0,
        },
        Object {
          "shadowColor": "#000000",
          "shadowOffset": Object {
            "height": 3,
            "width": 0,
          },
          "shadowOpacity": 0.24,
          "shadowRadius": 4,
        },
      ]
    }
  >
    <View
      style={
        Object {
          "alignItems": "center",
          "backgroundColor": "#1D243E",
          "elevation": 0,
          "flexDirection": "row",
          "height": 56,
          "marginTop": 0,
          "paddingHorizontal": 4,
        }
      }
    >
      <View
        style={
          Object {
            "width": 48,
          }
        }
      />
      <View
        accessible={true}
        focusable={false}
        onClick={[Function]}
        onResponderGrant={[Function]}
        onResponderMove={[Function]}
        onResponderRelease={[Function]}
        onResponderTerminate={[Function]}
        onResponderTerminationRequest={[Function]}
        onStartShouldSetResponder={[Function]}
        style={
          Array [
            Object {
              "flex": 1,
              "paddingHorizontal": 12,
            },
            Array [
              false,
              Object {
                "alignItems": "center",
              },
              undefined,
            ],
          ]
        }
      >
        <Text
          accessibilityRole="header"
          accessibilityTraits="header"
          accessible={true}
          numberOfLines={1}
          style={
            Array [
              Object {
                "color": "#000000",
                "fontFamily": "System",
                "fontWeight": "400",
              },
              Object {
                "textAlign": "left",
              },
              Array [
                Object {
                  "color": "#ffffff",
                  "fontFamily": "System",
                  "fontWeight": "400",
                },
                Object {
                  "fontSize": 17,
                },
                Object {
                  "color": "#fff",
                  "textAlign": "center",
                },
              ],
            ]
          }
        >
          Categories
        </Text>
      </View>
      <View
        style={
          Object {
            "width": 48,
          }
        }
      />
    </View>
  </RCTSafeAreaView>
  <View
    style={
      Object {
        "flexDirection": "row",
        "marginBottom": 10,
      }
    }
  >
    <View
      style={
        Object {
          "backgroundColor": "#ffffff",
          "borderColor": "rgba(0, 0, 0, 0.12)",
          "borderRadius": 4,
          "elevation": 1,
          "marginRight": 5,
          "shadowColor": "#000000",
          "shadowOffset": Object {
            "height": 0.5,
            "width": 0,
          },
          "shadowOpacity": 0.24,
          "shadowRadius": 0.75,
          "width": 375,
        }
      }
    >
      <View
        accessible={true}
        focusable={false}
        onClick={[Function]}
        onResponderGrant={[Function]}
        onResponderMove={[Function]}
        onResponderRelease={[Function]}
        onResponderTerminate={[Function]}
        onResponderTerminationRequest={[Function]}
        onStartShouldSetResponder={[Function]}
        style={
          Object {
            "flexGrow": 1,
            "flexShrink": 1,
          }
        }
      >
        <View
          style={
            Array [
              Object {
                "paddingHorizontal": 16,
              },
              Object {
                "paddingVertical": 16,
              },
              undefined,
            ]
          }
        >
          <Text
            style={
              Array [
                Object {
                  "color": "#000000",
                  "fontFamily": "System",
                  "fontWeight": "400",
                },
                Object {
                  "textAlign": "left",
                },
                Array [
                  Object {
                    "textAlign": "left",
                  },
                  Object {
                    "color": "rgba(0, 0, 0, 0.87)",
                    "fontFamily": "System",
                    "fontWeight": "500",
                    "writingDirection": "ltr",
                  },
                  Array [
                    Object {
                      "fontSize": 20,
                      "letterSpacing": 0.15,
                      "lineHeight": 30,
                      "marginVertical": 2,
                    },
                    Object {
                      "fontSize": 14,
                    },
                  ],
                ],
              ]
            }
          >
            Data Loaded
          </Text>
          <Text
            style={
              Array [
                Object {
                  "color": "#000000",
                  "fontFamily": "System",
                  "fontWeight": "400",
                },
                Object {
                  "textAlign": "left",
                },
                Array [
                  Object {
                    "textAlign": "left",
                  },
                  Object {
                    "color": "rgba(0, 0, 0, 0.87)",
                    "fontFamily": "System",
                    "fontWeight": "400",
                    "writingDirection": "ltr",
                  },
                  Array [
                    Object {
                      "fontSize": 14,
                      "letterSpacing": 0.25,
                      "lineHeight": 20,
                      "marginVertical": 2,
                    },
                    Object {
                      "color": "green",
                    },
                  ],
                ],
              ]
            }
          >
            <Text
              style={
                Object {
                  "fontSize": 14,
                  "textAlign": "right",
                }
              }
            >
              0
            </Text>
          </Text>
        </View>
      </View>
    </View>
    <View
      style={
        Object {
          "backgroundColor": "#ffffff",
          "borderColor": "rgba(0, 0, 0, 0.12)",
          "borderRadius": 4,
          "elevation": 1,
          "marginLeft": 5,
          "shadowColor": "#000000",
          "shadowOffset": Object {
            "height": 0.5,
            "width": 0,
          },
          "shadowOpacity": 0.24,
          "shadowRadius": 0.75,
          "width": 375,
        }
      }
    >
      <View
        accessible={true}
        focusable={false}
        onClick={[Function]}
        onResponderGrant={[Function]}
        onResponderMove={[Function]}
        onResponderRelease={[Function]}
        onResponderTerminate={[Function]}
        onResponderTerminationRequest={[Function]}
        onStartShouldSetResponder={[Function]}
        style={
          Object {
            "flexGrow": 1,
            "flexShrink": 1,
          }
        }
      >
        <View
          style={
            Array [
              Object {
                "paddingHorizontal": 16,
              },
              Object {
                "paddingVertical": 16,
              },
              undefined,
            ]
          }
        >
          <Text
            style={
              Array [
                Object {
                  "color": "#000000",
                  "fontFamily": "System",
                  "fontWeight": "400",
                },
                Object {
                  "textAlign": "left",
                },
                Array [
                  Object {
                    "textAlign": "left",
                  },
                  Object {
                    "color": "rgba(0, 0, 0, 0.87)",
                    "fontFamily": "System",
                    "fontWeight": "500",
                    "writingDirection": "ltr",
                  },
                  Array [
                    Object {
                      "fontSize": 20,
                      "letterSpacing": 0.15,
                      "lineHeight": 30,
                      "marginVertical": 2,
                    },
                    Object {
                      "fontSize": 14,
                    },
                  ],
                ],
              ]
            }
          >
            Currency
          </Text>
          <Text
            style={
              Array [
                Object {
                  "color": "#000000",
                  "fontFamily": "System",
                  "fontWeight": "400",
                },
                Object {
                  "textAlign": "left",
                },
                Array [
                  Object {
                    "textAlign": "left",
                  },
                  Object {
                    "color": "rgba(0, 0, 0, 0.87)",
                    "fontFamily": "System",
                    "fontWeight": "400",
                    "writingDirection": "ltr",
                  },
                  Array [
                    Object {
                      "fontSize": 14,
                      "letterSpacing": 0.25,
                      "lineHeight": 20,
                      "marginVertical": 2,
                    },
                    Object {
                      "color": "green",
                    },
                  ],
                ],
              ]
            }
          >
            USD
          </Text>
        </View>
      </View>
    </View>
  </View>
</View>
`;

exports[`productReducer productReducer => CHECK_PING 1`] = `
Object {
  "accountReducer": Object {
    "checkAccountLoginRes": Array [],
    "errorMsg": "",
    "logoutReduxRes": Array [],
    "signUpRes": Array [],
    "successMsg": "",
  },
  "masterReducer": Object {
    "errorMsg": "",
    "getLangRes": Array [],
    "postLangRes": Array [],
    "successMsg": "",
  },
  "productReducer": Object {
    "checkPingRes": Array [],
    "errorMsg": "",
    "getCategoriesRes": Array [],
    "getCoinsRes": Array [],
    "getCurrenciesRes": Array [],
    "getDerivativesRes": Array [],
    "getExchangeRatesRes": Array [],
    "getExchangesRes": Array [],
    "getGlobalRes": Array [],
    "searchCoinsRes": Array [],
    "successMsg": "",
  },
}
`;

exports[`productReducer productReducer => GET_CATEGORIES 1`] = `
Object {
  "accountReducer": Object {
    "checkAccountLoginRes": Array [],
    "errorMsg": "",
    "logoutReduxRes": Array [],
    "signUpRes": Array [],
    "successMsg": "",
  },
  "masterReducer": Object {
    "errorMsg": "",
    "getLangRes": Array [],
    "postLangRes": Array [],
    "successMsg": "",
  },
  "productReducer": Object {
    "checkPingRes": Array [],
    "errorMsg": "",
    "getCategoriesRes": Array [],
    "getCoinsRes": Array [],
    "getCurrenciesRes": Array [],
    "getDerivativesRes": Array [],
    "getExchangeRatesRes": Array [],
    "getExchangesRes": Array [],
    "getGlobalRes": Array [],
    "searchCoinsRes": Array [],
    "successMsg": "",
  },
}
`;

exports[`productReducer productReducer => initial state 1`] = `
Object {
  "accountReducer": Object {
    "checkAccountLoginRes": Array [],
    "errorMsg": "",
    "logoutReduxRes": Array [],
    "signUpRes": Array [],
    "successMsg": "",
  },
  "masterReducer": Object {
    "errorMsg": "",
    "getLangRes": Array [],
    "postLangRes": Array [],
    "successMsg": "",
  },
  "productReducer": Object {
    "checkPingRes": Array [],
    "errorMsg": "",
    "getCategoriesRes": Array [],
    "getCoinsRes": Array [],
    "getCurrenciesRes": Array [],
    "getDerivativesRes": Array [],
    "getExchangeRatesRes": Array [],
    "getExchangesRes": Array [],
    "getGlobalRes": Array [],
    "searchCoinsRes": Array [],
    "successMsg": "",
  },
}
`;
